dataset,model,preprocessing_method,seed,GPU Type,learning_rate,piecewise_constant_decay,piecewise_constant_decay_values,use_sgd_epoch,sgd_scheduler_lr,sgd_scheduler_wd,sgd_piecewise_constant_decay,sgd_piecewise_constant_decay_values,momentum,nesterov,epochs,batch_size,test_batch_size,model,chunk_lvl,early_stopping_epochs,dropout,l2_regularizer,batch_norm,test_pr,test_pr_genre,test_pr_instrument,test_pr_mood,test_roc,test_roc_genre,test_roc_instrument,test_roc_mood,avg_epoch_time_minutes
magna_tag_a_tune,vgg16,STFT,122683773,GeForce RTX 2060 SUPER,2.7E-05,"[3,5]","[1,0.5,0.1]",6,1E-05,,"[2,4]","[1,0.25,0.05]",0.9,false,12,2,4,vgg16,false,3,0,0.01,true,0.317793130874634,0.299666345119476,0.371731489896774,0.225887462496757,0.874813258647919,0.883074223995209,0.872013509273529,0.865307331085205,27.2880604016667
magna_tag_a_tune,vgg16,STFT,1234040,GeForce RTX 2080 Ti,2.7E-05,"[3,5]","[1,0.5,0.1]",6,1E-05,,"[2,4]","[1,0.25,0.05]",0.9,false,12,4,8,vgg16,false,3,0,0.01,true,0.354025721549988,0.338611662387848,0.409333497285843,0.259752750396729,0.894797742366791,0.911501169204712,0.885355532169342,0.886685431003571,20.6390815257576
magna_tag_a_tune,vgg16,STFT,3494912,GeForce RTX 2080 Ti,2.7E-05,"[3,5]","[1,0.5,0.1]",6,1E-05,,"[2,4]","[1,0.25,0.05]",0.9,false,12,4,8,vgg16,false,3,0,0.01,true,0.348730951547623,0.327066034078598,0.408087283372879,0.255444407463074,0.893234252929688,0.908286273479462,0.884249091148376,0.887171864509583,19.7270416444444
magna_tag_a_tune,vgg16,STFT,248123,GeForce RTX 2080 Ti,2.7E-05,"[3,5]","[1,0.5,0.1]",6,1E-05,,"[2,4]","[1,0.25,0.05]",0.9,false,12,4,8,vgg16,false,3,0,0.01,true,0.349876433610916,0.324150830507278,0.410819828510284,0.263957917690277,0.890296936035156,0.902554094791412,0.884508907794952,0.881847143173218,10.1364015383333
magna_tag_a_tune,vgg16,STFT,935834894,GeForce RTX 2080 Ti,2.7E-05,"[3,5]","[1,0.5,0.1]",6,1E-05,,"[2,4]","[1,0.25,0.05]",0.9,false,12,4,8,vgg16,false,3,0,0.01,true,0.349183857440948,0.327216118574142,0.408569723367691,0.255336284637451,0.893510282039642,0.907003879547119,0.885781526565552,0.887588679790497,19.5455311555556
magna_tag_a_tune,vgg16,STFT,300055988,GeForce RTX 2080 Ti,2.7E-05,"[3,5]","[1,0.5,0.1]",6,1E-05,,"[2,4]","[1,0.25,0.05]",0.9,false,12,4,8,vgg16,false,3,0,0.01,true,0.352739840745926,0.334374785423279,0.408258557319641,0.261301249265671,0.893241286277771,0.905683159828186,0.885585963726044,0.888638913631439,19.5806687833333
magna_tag_a_tune,vgg16,STFT,33444530,GeForce RTX 2080 Ti,2.7E-05,"[3,5]","[1,0.5,0.1]",6,1E-05,,"[2,4]","[1,0.25,0.05]",0.9,false,12,4,8,vgg16,false,3,0,0.01,true,0.350935131311417,0.328766375780106,0.411145508289337,0.2581667304039,0.893629252910614,0.907796800136566,0.885893285274506,0.886064827442169,19.8032646805556
magna_tag_a_tune,vgg16,RAW_WAVEFORM,935834894,GeForce RTX 2060 SUPER,8E-05,"[4,6]","[1,0.5,0.1]",8,2E-05,,"[3,5]","[1,0.25,0.05]",0.9,false,16,2,4,vgg16,false,5,0,0.01,false,0.281586766242981,0.259281873703003,0.325758248567581,0.223297387361526,0.849735736846924,0.85641872882843,0.8422811627388,0.852716565132141,9.44156886944445
magna_tag_a_tune,vgg16,RAW_WAVEFORM,33444530,GeForce RTX 2080 Ti,8.5E-05,"[4,6]","[1,0.5,0.1]",8,1.6E-05,,"[3,5]","[1,0.25,0.05]",0.9,false,16,2,4,vgg16,false,3,0,0.01,false,0.277639955282211,0.248775646090507,0.317350894212723,0.238907128572464,0.848768174648285,0.858343362808227,0.83892422914505,0.853771865367889,10.6210035916667
magna_tag_a_tune,vgg16,RAW_WAVEFORM,3494912,GeForce RTX 2060 SUPER,8.5E-05,"[4,6]","[1,0.5,0.1]",8,1.6E-05,,"[3,5]","[1,0.25,0.05]",0.9,false,16,2,2,vgg16,false,3,0,0.01,false,0.268650889396667,0.244751319289207,0.308225125074387,0.223868533968925,0.853723168373108,0.872104287147522,0.835191309452057,0.863493800163269,9.8265164962963
magna_tag_a_tune,vgg16,RAW_WAVEFORM,300055988,GeForce RTX 2080 Ti,8.5E-05,"[4,6]","[1,0.5,0.1]",8,1.6E-05,,"[3,5]","[1,0.25,0.05]",0.9,false,16,2,4,vgg16,false,3,0,0.01,false,0.277639955282211,0.248775646090507,0.317350894212723,0.238907128572464,0.848768174648285,0.858343362808227,0.83892422914505,0.853771865367889,10.3881396483333
magna_tag_a_tune,vgg16,RAW_WAVEFORM,1234040,GeForce RTX 2080 Ti,8.5E-05,"[4,6]","[1,0.5,0.1]",8,1.6E-05,,"[3,5]","[1,0.25,0.05]",0.9,false,16,2,4,vgg16,false,3,0,0.01,false,0.282152414321899,0.260081917047501,0.3292635679245,0.218601882457733,0.851861596107483,0.865330040454865,0.839328408241272,0.854303479194641,11.5104480183333
magna_tag_a_tune,vgg16,RAW_WAVEFORM,122683773,GeForce RTX 2080 Ti,8.5E-05,"[4,6]","[1,0.5,0.1]",8,1.6E-05,,"[3,5]","[1,0.25,0.05]",0.9,false,16,2,4,vgg16,false,3,0,0.01,false,0.277639955282211,0.248775646090507,0.317350894212723,0.238907128572464,0.848768174648285,0.858343362808227,0.83892422914505,0.853771865367889,10.623174635
magna_tag_a_tune,vgg16,RAW_WAVEFORM,248123,GeForce RTX 2080 Ti,8.5E-05,"[4,6]","[1,0.5,0.1]",8,1.6E-05,,"[3,5]","[1,0.25,0.05]",0.9,false,16,2,8,vgg16,false,3,0,0.01,false,0.279440194368362,0.250381112098694,0.323331713676453,0.234613969922066,0.853572130203247,0.864535748958588,0.840287148952484,0.862815082073212,11.9337738055556
magna_tag_a_tune,vgg16,MFCC,122683773,GeForce RTX 2080 Ti,0.000129,"[5,7]","[1,0.5,0.1]",8,2.5E-05,,"[3,6]","[1,0.25,0.05]",0.9,false,16,64,128,vgg16,false,3,0.25,0.01,true,0.251156717538834,0.25221848487854,0.269248276948929,0.21119949221611,0.817184150218964,0.831571698188782,0.798498868942261,0.853905498981476,0.711309422727273
magna_tag_a_tune,vgg16,MFCC,248123,GeForce RTX 2080 Ti,0.000129,"[5,7]","[1,0.5,0.1]",8,2.5E-05,,"[3,6]","[1,0.25,0.05]",0.9,false,16,64,128,vgg16,false,3,0.25,0.01,true,0.275601893663406,0.250596523284912,0.31766140460968,0.223455011844635,0.830446004867554,0.838783025741577,0.810853779315949,0.858679056167602,0.545350420833333
magna_tag_a_tune,vgg16,MFCC,935834894,GeForce RTX 2080 Ti,0.000129,"[5,7]","[1,0.5,0.1]",8,2.5E-05,,"[3,6]","[1,0.25,0.05]",0.9,false,16,64,128,vgg16,false,3,0.25,0.01,true,0.265361547470093,0.252392619848251,0.295356869697571,0.22211030125618,0.839680910110474,0.85564261674881,0.819974005222321,0.864034235477448,0.718282315
magna_tag_a_tune,vgg16,MFCC,33444530,GeForce RTX 2080 Ti,0.000129,"[5,7]","[1,0.5,0.1]",8,2.5E-05,,"[3,6]","[1,0.25,0.05]",0.9,false,16,64,128,vgg16,false,3,0.25,0.01,true,0.278239697217941,0.256664663553238,0.313629657030106,0.230870217084885,0.842908084392548,0.845414280891418,0.833065807819366,0.856337785720825,0.74352857962963
magna_tag_a_tune,vgg16,MFCC,1234040,GeForce RTX 2080 Ti,0.000129,"[5,7]","[1,0.5,0.1]",8,2.5E-05,,"[3,6]","[1,0.25,0.05]",0.9,false,16,64,128,vgg16,false,3,0.25,0.01,true,0.268378674983978,0.251124233007431,0.304110646247864,0.212640777230263,0.847432732582092,0.859330058097839,0.832431435585022,0.855848968029022,0.732102557407407
magna_tag_a_tune,vgg16,MFCC,300055988,GeForce RTX 2080 Ti,0.000129,"[5,7]","[1,0.5,0.1]",8,2.5E-05,,"[3,6]","[1,0.25,0.05]",0.9,false,16,64,128,vgg16,false,3,0.25,0.01,true,0.253639906644821,0.24364410340786,0.282820135354996,0.20580393075943,0.823883533477783,0.834417462348938,0.810908734798431,0.850910902023315,0.698876507575757
magna_tag_a_tune,vgg16,MFCC,3494912,GeForce RTX 2060 SUPER,0.000129,"[5,7]","[1,0.5,0.1]",8,2.5E-05,,"[3,6]","[1,0.25,0.05]",0.9,false,16,32,64,vgg16,false,3,0.25,0.01,true,0.267129302024841,0.254967600107193,0.299103319644928,0.217010006308556,0.840074896812439,0.855800986289978,0.824061453342438,0.858706176280975,1.06475376969697
magna_tag_a_tune,vgg16,MEL_SPECTROGRAM,3494912,GeForce RTX 2080 Ti,1.85E-05,"[5,7]","[1,0.5,0.1]",8,1E-05,,"[3,6]","[1,0.25,0.05]",0.9,false,16,16,32,vgg16,false,3,0,0,true,0.336831122636795,0.3145552277565,0.40342503786087,0.227524921298027,0.889053702354431,0.912217617034912,0.879264652729034,0.871752738952637,2.05082359444444
magna_tag_a_tune,vgg16,MEL_SPECTROGRAM,122683773,GeForce RTX 2080 Ti,1.85E-05,"[5,7]","[1,0.5,0.1]",8,1E-05,,"[3,6]","[1,0.25,0.05]",0.9,false,16,16,32,vgg16,false,3,0,0,true,0.338510066270828,0.316908001899719,0.403070628643036,0.230604991316795,0.886587142944336,0.908821642398834,0.876638770103455,0.867783665657043,2.11360864285714
magna_tag_a_tune,vgg16,MEL_SPECTROGRAM,1234040,GeForce RTX 2080 Ti,1.85E-05,"[5,7]","[1,0.5,0.1]",8,1E-05,,"[3,6]","[1,0.25,0.05]",0.9,false,16,16,32,vgg16,false,3,0,0,true,0.34184405207634,0.31324490904808,0.408818513154983,0.244155779480934,0.884674310684204,0.906556606292725,0.876039743423462,0.864418029785156,2.0873953047619
magna_tag_a_tune,vgg16,MEL_SPECTROGRAM,248123,GeForce RTX 2080 Ti,1.85E-05,"[5,7]","[1,0.5,0.1]",8,1E-05,,"[3,6]","[1,0.25,0.05]",0.9,false,16,16,32,vgg16,false,3,0,0,true,0.338768571615219,0.323956966400146,0.394931048154831,0.239698812365532,0.888006150722504,0.913521349430084,0.875374436378479,0.869274854660034,1.62633324333333
magna_tag_a_tune,vgg16,MEL_SPECTROGRAM,935834894,GeForce RTX 2080 Ti,1.85E-05,"[5,7]","[1,0.5,0.1]",8,1E-05,,"[3,6]","[1,0.25,0.05]",0.9,false,16,16,32,vgg16,false,3,0,0,true,0.347207188606262,0.330609440803528,0.406823635101318,0.246749877929687,0.890070676803589,0.914399266242981,0.881990790367126,0.86440110206604,2.05582465
magna_tag_a_tune,vgg16,MEL_SPECTROGRAM,300055988,GeForce RTX 2080 Ti,1.85E-05,"[5,7]","[1,0.5,0.1]",8,1E-05,,"[3,6]","[1,0.25,0.05]",0.9,false,16,16,32,vgg16,false,3,0,0,true,0.347769021987915,0.323374688625336,0.412444710731506,0.248899012804031,0.889970004558563,0.913153171539306,0.878251433372498,0.874094486236572,2.07787999444444
magna_tag_a_tune,vgg16,MEL_SPECTROGRAM,33444530,GeForce RTX 2080 Ti,1.85E-05,"[5,7]","[1,0.5,0.1]",8,1E-05,,"[3,6]","[1,0.25,0.05]",0.9,false,16,16,32,vgg16,false,3,0,0,true,0.345041781663895,0.321431994438171,0.407921195030212,0.244184762239456,0.888038873672485,0.908958256244659,0.88070672750473,0.868511021137237,2.24694778095238
magna_tag_a_tune,vgg16,CQT_TRANSFORMATION,33444530,GeForce RTX 2080 Ti,1.85E-05,"[5,7]","[1,0.5,0.1]",8,1E-05,,"[3,6]","[1,0.25,0.05]",0.9,false,16,16,32,vgg16,false,3,0,0,true,0.343652814626694,0.32475209236145,0.402000784873962,0.246455803513527,0.885558068752289,0.905019700527191,0.87658029794693,0.871193110942841,2.2288059547619
magna_tag_a_tune,vgg16,CQT_TRANSFORMATION,1234040,GeForce RTX 2080 Ti,1.85E-05,"[5,7]","[1,0.5,0.1]",8,1E-05,,"[3,6]","[1,0.25,0.05]",0.9,false,16,16,32,vgg16,false,3,0,0,true,0.345401078462601,0.333526492118835,0.402954548597336,0.237859323620796,0.885098576545715,0.909003913402557,0.875559866428375,0.862601161003113,2.10113899523809
magna_tag_a_tune,vgg16,CQT_TRANSFORMATION,248123,GeForce RTX 2060 SUPER,1.85E-05,"[5,7]","[1,0.5,0.1]",8,1E-05,,"[3,6]","[1,0.25,0.05]",0.9,false,16,16,32,vgg16,false,3,0,0,true,0.336871385574341,0.326049387454987,0.396466434001923,0.227928981184959,0.885298013687134,0.905470490455627,0.877658665180206,0.868044435977936,2.61747987222222
magna_tag_a_tune,vgg16,CQT_TRANSFORMATION,935834894,GeForce RTX 2080 Ti,1.85E-05,"[5,7]","[1,0.5,0.1]",8,1E-05,,"[3,6]","[1,0.25,0.05]",0.9,false,16,16,32,vgg16,false,3,0,0,true,0.340638875961304,0.327781945466995,0.394479066133499,0.241136491298675,0.881371915340424,0.904577016830444,0.869935810565949,0.862175226211548,2.20818395238095
magna_tag_a_tune,vgg16,CQT_TRANSFORMATION,3494912,GeForce RTX 2060 SUPER,1.85E-05,"[5,7]","[1,0.5,0.1]",8,1E-05,,"[3,6]","[1,0.25,0.05]",0.9,false,16,8,16,vgg16,false,3,0,0,true,0.341943204402924,0.324717968702316,0.399423718452454,0.24524575471878,0.883152306079865,0.903771162033081,0.872744023799896,0.870130360126495,2.9958039547619
magna_tag_a_tune,vgg16,CQT_TRANSFORMATION,300055988,GeForce RTX 2080 Ti,1.85E-05,"[5,7]","[1,0.5,0.1]",8,1E-05,,"[3,6]","[1,0.25,0.05]",0.9,false,16,16,32,vgg16,false,3,0,0,true,0.337742894887924,0.31868851184845,0.401662707328796,0.226627990603447,0.887981116771698,0.915360867977142,0.877192437648773,0.864232897758484,2.05519748095238
magna_tag_a_tune,vgg16,CQT_TRANSFORMATION,122683773,GeForce RTX 2080 Ti,1.85E-05,"[5,7]","[1,0.5,0.1]",8,1E-05,,"[3,6]","[1,0.25,0.05]",0.9,false,16,16,32,vgg16,false,3,0,0,true,0.340542376041412,0.326047897338867,0.399703025817871,0.230427846312523,0.887245893478394,0.910600125789642,0.877289831638336,0.865828514099121,2.08671479047619
magna_tag_a_tune,senet,STFT,122683773,GeForce RTX 2080 Ti,0.0001073,"[3,5]","[1,0.5,0.1]",6,2E-05,,"[2,4]","[1,0.25,0.05]",0.9,false,12,3,8,senet,false,3,0,0.01,false,0.333153069019318,0.299363136291504,0.395584374666214,0.256041646003723,0.894469678401947,0.911999940872192,0.883812665939331,0.89011162519455,58.398165480303
magna_tag_a_tune,senet,STFT,1234040,GeForce RTX 2080 Ti,0.0001073,"[3,5]","[1,0.5,0.1]",6,2E-05,,"[2,4]","[1,0.25,0.05]",0.9,false,12,3,8,senet,false,3,0,0.01,false,0.336186915636063,0.301390111446381,0.402271538972855,0.250952124595642,0.890097677707672,0.903702080249786,0.882609128952026,0.88346803188324,58.9050457430556
magna_tag_a_tune,senet,STFT,935834894,GeForce RTX 2080 Ti,0.0001073,"[3,5]","[1,0.5,0.1]",6,2E-05,,"[2,4]","[1,0.25,0.05]",0.9,false,12,3,8,senet,false,3,0,0.01,false,0.337131053209305,0.305427551269531,0.398108780384064,0.256749510765076,0.893089294433594,0.912622690200806,0.882365047931671,0.884089767932892,57.2234745347222
magna_tag_a_tune,senet,STFT,248123,GeForce RTX 2080 Ti,0.0001073,"[3,5]","[1,0.5,0.1]",6,2E-05,,"[2,4]","[1,0.25,0.05]",0.9,false,12,3,8,senet,false,3,0,0.01,false,0.33237037062645,0.296210527420044,0.397801995277405,0.253506422042847,0.892504274845123,0.906657934188843,0.883539378643036,0.889678955078125,39.4091193347222
magna_tag_a_tune,senet,STFT,300055988,GeForce RTX 2080 Ti,0.0001073,"[3,5]","[1,0.5,0.1]",6,2E-05,,"[2,4]","[1,0.25,0.05]",0.9,false,12,3,8,senet,false,3,0,0.01,false,0.3364018201828,0.306771636009216,0.398547083139419,0.25098979473114,0.892460584640503,0.906588971614838,0.884506225585938,0.88688600063324,57.9936908318182
magna_tag_a_tune,senet,STFT,3494912,GeForce RTX 2060 SUPER,0.0001073,"[3,5]","[1,0.5,0.1]",6,2E-05,,"[2,4]","[1,0.25,0.05]",0.9,false,12,2,4,senet,false,3,0,0.01,false,0.336749494075775,0.304468065500259,0.401504009962082,0.253304898738861,0.891726672649383,0.909569025039673,0.882471799850464,0.883438527584076,58.3436212819445
magna_tag_a_tune,senet,STFT,33444530,GeForce RTX 2080 Ti,0.0001073,"[3,5]","[1,0.5,0.1]",6,2E-05,,"[2,4]","[1,0.25,0.05]",0.9,false,12,3,8,senet,false,3,0,0.01,false,0.333267509937286,0.302605956792831,0.395262539386749,0.252595275640488,0.889436423778534,0.906456828117371,0.87956714630127,0.882950186729431,57.8044844333333
magna_tag_a_tune,senet,RAW_WAVEFORM,122683773,GeForce RTX 2080 Ti,5E-05,"[4,6]","[1,0.5,0.1]",8,1E-05,,"[3,5]","[1,0.25,0.05]",0.9,false,16,4,8,senet,true,3,0,0.01,true,0.287011027336121,0.269040256738663,0.338260501623154,0.202992260456085,0.867934584617615,0.885849416255951,0.854809582233429,0.867526948451996,150.040785361458
magna_tag_a_tune,senet,RAW_WAVEFORM,935834894,GeForce RTX 2080 Ti,5E-05,"[4,6]","[1,0.5,0.1]",8,1E-05,,"[3,5]","[1,0.25,0.05]",0.9,false,16,4,8,senet,true,3,0,0.01,true,0.294295459985733,0.278472125530243,0.351430684328079,0.191127598285675,0.863793611526489,0.894602954387665,0.85981160402298,0.816182732582092,189.282469455128
magna_tag_a_tune,senet,RAW_WAVEFORM,248123,GeForce RTX 2080 Ti,5E-05,"[4,6]","[1,0.5,0.1]",8,1E-05,,"[3,5]","[1,0.25,0.05]",0.9,false,16,6,16,senet,true,3,0,0.01,true,0.344514697790146,0.318491071462631,0.414264410734177,0.234849214553833,0.899845719337463,0.91880863904953,0.892176687717438,0.885180652141571,93.2209365739583
magna_tag_a_tune,senet,RAW_WAVEFORM,1234040,GeForce RTX 2080 Ti,5E-05,"[4,6]","[1,0.5,0.1]",8,1E-05,,"[3,5]","[1,0.25,0.05]",0.9,false,16,4,8,senet,true,3,0,0.01,true,0.324006795883179,0.294906377792358,0.388730317354202,0.233085229992866,0.889611065387726,0.90513527393341,0.882344186306,0.880917310714722,148.612717321212
magna_tag_a_tune,senet,RAW_WAVEFORM,33444530,GeForce RTX 2080 Ti,5E-05,"[4,6]","[1,0.5,0.1]",8,1E-05,,"[3,5]","[1,0.25,0.05]",0.9,false,16,4,8,senet,true,3,0,0.01,true,0.315535426139832,0.293830513954163,0.374201864004135,0.223276510834694,0.885808885097504,0.904449880123138,0.875783324241638,0.878332018852234,183.697635645455
magna_tag_a_tune,senet,RAW_WAVEFORM,300055988,GeForce RTX 2080 Ti,5E-05,"[4,6]","[1,0.5,0.1]",8,1E-05,,"[3,5]","[1,0.25,0.05]",0.9,false,16,4,8,senet,true,3,0,0.01,true,0.300545066595078,0.2659832239151,0.363493800163269,0.225784242153168,0.870391011238098,0.885738909244537,0.863156139850616,0.860642671585083,149.017625248333
magna_tag_a_tune,senet,RAW_WAVEFORM,3494912,GeForce RTX 2080 Ti,5E-05,"[4,6]","[1,0.5,0.1]",8,1E-05,,"[3,5]","[1,0.25,0.05]",0.9,false,16,4,8,senet,true,3,0,0.01,true,0.310771703720093,0.278639525175095,0.372113198041916,0.233309432864189,0.885217308998108,0.900147438049316,0.876992464065552,0.87892472743988,149.84736998
magna_tag_a_tune,senet,MFCC,935834894,GeForce RTX 2080 Ti,0.0005848,"[5,7]","[1,0.5,0.1]",8,0.00012,,"[3,6]","[1,0.25,0.05]",0.9,false,16,32,64,senet,false,3,0,0.01,true,0.351007282733917,0.314147055149078,0.418460249900818,0.265161395072937,0.899121046066284,0.91400796175003,0.889573037624359,0.896329998970032,2.77876620222222
magna_tag_a_tune,senet,MFCC,3494912,GeForce RTX 2080 Ti,0.0005848,"[5,7]","[1,0.5,0.1]",8,0.00012,,"[3,6]","[1,0.25,0.05]",0.9,false,16,32,64,senet,false,3,0,0.01,true,0.344411164522171,0.310393065214157,0.409593462944031,0.258972764015198,0.895225346088409,0.911700665950775,0.884729564189911,0.891116261482239,2.787536884375
magna_tag_a_tune,senet,MFCC,33444530,GeForce RTX 2080 Ti,0.0005848,"[5,7]","[1,0.5,0.1]",8,0.00012,,"[3,6]","[1,0.25,0.05]",0.9,false,16,32,64,senet,false,3,0,0.01,true,0.344360053539276,0.310580939054489,0.413601785898209,0.248866498470306,0.894715070724487,0.908915996551514,0.885691046714783,0.890763282775879,2.68275486666667
magna_tag_a_tune,senet,MFCC,1234040,GeForce RTX 2080 Ti,0.0005848,"[5,7]","[1,0.5,0.1]",8,0.00012,,"[3,6]","[1,0.25,0.05]",0.9,false,16,32,64,senet,false,3,0,0.01,true,0.345678925514221,0.316210687160492,0.414864450693131,0.242654427886009,0.897314429283142,0.912623643875122,0.888490855693817,0.891767382621765,2.6853348025641
magna_tag_a_tune,senet,MFCC,122683773,GeForce RTX 2080 Ti,0.0005848,"[5,7]","[1,0.5,0.1]",8,0.00012,,"[3,6]","[1,0.25,0.05]",0.9,false,16,32,64,senet,false,3,0,0.01,true,0.350106686353684,0.318551748991013,0.414748847484589,0.261548936367035,0.898198843002319,0.915121257305145,0.887758195400238,0.892304122447968,2.681692671875
magna_tag_a_tune,senet,MFCC,300055988,GeForce RTX 2080 Ti,0.0005848,"[5,7]","[1,0.5,0.1]",8,0.00012,,"[3,6]","[1,0.25,0.05]",0.9,false,16,32,64,senet,false,3,0,0.01,true,0.35037162899971,0.31530636548996,0.420828372240067,0.256198287010193,0.899692058563232,0.914358615875244,0.891213476657867,0.893023192882538,2.6849420797619
magna_tag_a_tune,senet,MFCC,248123,GeForce RTX 2080 Ti,0.0005848,"[5,7]","[1,0.5,0.1]",8,0.00012,,"[3,6]","[1,0.25,0.05]",0.9,false,16,32,64,senet,false,3,0,0.01,true,0.345503926277161,0.311201184988022,0.414479285478592,0.251828402280807,0.896664261817932,0.910848021507263,0.888358891010284,0.891223192214966,1.76106075416667
magna_tag_a_tune,senet,MEL_SPECTROGRAM,1234040,GeForce RTX 2080 Ti,0.0003526,"[4,6]","[1,0.5,0.1]",8,7E-05,,"[3,5]","[1,0.25,0.05]",0.9,false,16,16,32,senet,false,3,0,0.01,false,0.315723538398743,0.287459760904312,0.371663600206375,0.239047929644585,0.882292032241821,0.900305807590485,0.875542402267456,0.865129172801971,9.2665435452381
magna_tag_a_tune,senet,MEL_SPECTROGRAM,3494912,GeForce RTX 2080 Ti,0.0003526,"[4,6]","[1,0.5,0.1]",8,7E-05,,"[3,5]","[1,0.25,0.05]",0.9,false,16,16,32,senet,false,3,0,0.01,false,0.311293363571167,0.291316717863083,0.363788902759552,0.228733032941818,0.880436718463898,0.902121126651764,0.869775593280792,0.864442110061646,8.96311169375
magna_tag_a_tune,senet,MEL_SPECTROGRAM,248123,GeForce RTX 2080 Ti,0.0003526,"[4,6]","[1,0.5,0.1]",8,7E-05,,"[3,5]","[1,0.25,0.05]",0.9,false,16,16,32,senet,false,3,0,0.01,false,0.319964826107025,0.296273082494736,0.37533238530159,0.23615799844265,0.884352505207062,0.902972936630249,0.873763024806976,0.87458062171936,6.83023063571429
magna_tag_a_tune,senet,MEL_SPECTROGRAM,935834894,GeForce RTX 2060 SUPER,0.0003526,"[4,6]","[1,0.5,0.1]",8,7E-05,,"[3,5]","[1,0.25,0.05]",0.9,false,16,8,16,senet,false,3,0,0.01,false,0.297646015882492,0.281085163354874,0.344288498163223,0.221795469522476,0.875812590122223,0.904731810092926,0.862620532512665,0.852681696414948,10.2326013809524
magna_tag_a_tune,senet,MEL_SPECTROGRAM,300055988,GeForce RTX 2080 Ti,0.0003526,"[4,6]","[1,0.5,0.1]",8,7E-05,,"[3,5]","[1,0.25,0.05]",0.9,false,16,16,32,senet,false,3,0,0.01,false,0.319971472024918,0.296942383050919,0.376015394926071,0.231201514601707,0.881650686264038,0.901554942131042,0.87275242805481,0.864885509014129,9.344182575
magna_tag_a_tune,senet,MEL_SPECTROGRAM,122683773,GeForce RTX 2080 Ti,0.0003526,"[4,6]","[1,0.5,0.1]",8,7E-05,,"[3,5]","[1,0.25,0.05]",0.9,false,16,16,32,senet,false,3,0,0.01,false,0.314630210399628,0.294483661651611,0.368165969848633,0.230813920497894,0.881588757038116,0.903383135795593,0.870128989219666,0.869525671005249,9.07437023020833
magna_tag_a_tune,senet,MEL_SPECTROGRAM,33444530,GeForce RTX 2080 Ti,0.0003526,"[4,6]","[1,0.5,0.1]",8,7E-05,,"[3,5]","[1,0.25,0.05]",0.9,false,16,16,32,senet,false,3,0,0.01,false,0.310256958007812,0.284666776657104,0.366380304098129,0.229775190353394,0.884424030780792,0.899781703948975,0.877869367599487,0.871615886688232,9.14055365256411
magna_tag_a_tune,senet,CQT_TRANSFORMATION,122683773,GeForce RTX 2080 Ti,0.0003526,"[4,6]","[1,0.5,0.1]",8,7E-05,,"[3,5]","[1,0.25,0.05]",0.9,false,16,16,32,senet,false,3,0,0.01,false,0.276386916637421,0.263588160276413,0.313025444746017,0.209218129515648,0.858318865299225,0.884622395038605,0.834158182144165,0.862502634525299,9.57645920104167
magna_tag_a_tune,senet,CQT_TRANSFORMATION,248123,GeForce RTX 2060 SUPER,0.0003526,"[4,6]","[1,0.5,0.1]",8,7E-05,,"[3,5]","[1,0.25,0.05]",0.9,false,16,16,32,senet,false,3,0,0.01,false,0.261802792549133,0.264992594718933,0.279321879148483,0.211747527122498,0.852113664150238,0.891444265842438,0.819237887859345,0.852765738964081,9.980182384375
magna_tag_a_tune,senet,CQT_TRANSFORMATION,3494912,GeForce RTX 2080 Ti,0.0003526,"[4,6]","[1,0.5,0.1]",8,7E-05,,"[3,5]","[1,0.25,0.05]",0.9,false,16,16,32,senet,false,3,0,0.01,false,0.29960510134697,0.286228597164154,0.341475039720535,0.225722968578339,0.870578527450562,0.899257719516754,0.848915636539459,0.866281867027283,9.50033903958333
magna_tag_a_tune,senet,CQT_TRANSFORMATION,935834894,GeForce RTX 2080 Ti,0.0003526,"[4,6]","[1,0.5,0.1]",8,7E-05,,"[3,5]","[1,0.25,0.05]",0.9,false,16,16,32,senet,false,3,0,0.01,false,0.281698197126389,0.276798397302628,0.314192533493042,0.214973345398903,0.863532245159149,0.89207911491394,0.842715501785278,0.855751991271973,9.21071055128205
magna_tag_a_tune,senet,CQT_TRANSFORMATION,300055988,GeForce RTX 2080 Ti,0.0003526,"[4,6]","[1,0.5,0.1]",8,7E-05,,"[3,5]","[1,0.25,0.05]",0.9,false,16,16,32,senet,false,3,0,0.01,false,0.294827699661255,0.292750507593155,0.324517339468002,0.231315851211548,0.868242502212524,0.895500004291534,0.84851735830307,0.861578404903412,9.43504412083333
magna_tag_a_tune,senet,CQT_TRANSFORMATION,1234040,GeForce RTX 2060 SUPER,0.0003526,"[4,6]","[1,0.5,0.1]",8,7E-05,,"[3,5]","[1,0.25,0.05]",0.9,false,16,8,16,senet,false,3,0,0.01,false,0.273581653833389,0.272991180419922,0.299714118242264,0.215355277061462,0.856190502643585,0.89079999923706,0.831414997577667,0.847007274627685,10.2454599822222
magna_tag_a_tune,senet,CQT_TRANSFORMATION,33444530,GeForce RTX 2080 Ti,0.0003526,"[4,6]","[1,0.5,0.1]",8,7E-05,,"[3,5]","[1,0.25,0.05]",0.9,false,16,16,32,senet,false,3,0,0.01,false,0.275554031133652,0.267173290252686,0.307789444923401,0.214059948921204,0.859852612018585,0.895961701869965,0.834780275821686,0.848540008068085,9.40087901666667
magna_tag_a_tune,resnet,STFT,122683773,GeForce RTX 2060 SUPER,0.0001,"[4,6]","[1,0.5,0.1]",8,2E-05,,"[2,4]","[1,0.25,0.05]",0.9,false,12,2,6,resnet,false,3,0,0.01,true,0.257240176200867,0.248587012290955,0.283464699983597,0.213085174560547,0.862483739852905,0.891708135604858,0.838147938251495,0.864419460296631,40.0662530409091
magna_tag_a_tune,resnet,STFT,935834894,GeForce RTX 2060 SUPER,0.0001,"[4,6]","[1,0.5,0.1]",8,2E-05,,"[2,4]","[1,0.25,0.05]",0.9,false,12,2,6,resnet,false,3,0,0.01,true,0.26064270734787,0.263478994369507,0.274656504392624,0.223890140652657,0.864088356494904,0.890482068061829,0.840961873531342,0.868860363960266,39.9085204847222
magna_tag_a_tune,resnet,STFT,300055988,GeForce RTX 2060 SUPER,0.0001,"[4,6]","[1,0.5,0.1]",8,2E-05,,"[2,4]","[1,0.25,0.05]",0.9,false,12,2,6,resnet,false,3,0,0.01,true,0.26507556438446,0.256138026714325,0.293129324913025,0.215995699167252,0.866796135902405,0.888940691947937,0.849192202091217,0.866357147693634,40.0965445069445
magna_tag_a_tune,resnet,STFT,33444530,GeForce RTX 2060 SUPER,0.0001,"[4,6]","[1,0.5,0.1]",8,2E-05,,"[2,4]","[1,0.25,0.05]",0.9,false,12,2,6,resnet,false,3,0,0.01,true,0.270301461219788,0.265298336744308,0.299550652503967,0.213932380080223,0.867364048957825,0.892845749855042,0.848562955856323,0.864998579025269,39.9487147875
magna_tag_a_tune,resnet,STFT,1234040,GeForce RTX 2060 SUPER,0.0001,"[4,6]","[1,0.5,0.1]",8,2E-05,,"[2,4]","[1,0.25,0.05]",0.9,false,12,2,6,resnet,false,3,0,0.01,true,0.252524226903915,0.246168702840805,0.269754379987717,0.224310323596001,0.859546959400177,0.885304272174835,0.834527254104614,0.869613587856293,39.8774058097222
magna_tag_a_tune,resnet,STFT,3494912,GeForce RTX 2060 SUPER,0.0001,"[4,6]","[1,0.5,0.1]",8,2E-05,,"[2,4]","[1,0.25,0.05]",0.9,false,12,2,6,resnet,false,3,0,0.01,true,0.251858562231064,0.240874767303467,0.276513487100601,0.216901689767838,0.855066359043121,0.87983238697052,0.831666231155396,0.863590836524963,39.9855559722222
magna_tag_a_tune,resnet,STFT,248123,GeForce RTX 2080 Ti,0.0001,"[3,5]","[1,0.5,0.1]",6,2E-05,,"[2,4]","[1,0.25,0.05]",0.9,false,12,4,16,resnet,false,3,0,0.01,true,0.321568757295609,0.292106121778488,0.372580021619797,0.258485913276672,0.888310849666595,0.905745983123779,0.876007974147797,0.885153591632843,18.6837842466667
magna_tag_a_tune,resnet,RAW_WAVEFORM,1234040,GeForce RTX 2080 Ti,5E-05,"[4,6]","[1,0.5,0.2]",8,1E-05,,"[3,5]","[1,0.25,0.05]",0.9,false,16,16,16,resnet,true,3,0,0.01,true,0.348087847232819,0.326775729656219,0.406093955039978,0.257531672716141,0.898445129394531,0.917905032634735,0.885689973831177,0.893372654914856,85.8074390181818
magna_tag_a_tune,resnet,RAW_WAVEFORM,300055988,GeForce RTX 2080 Ti,5E-05,"[4,6]","[1,0.5,0.2]",8,1E-05,,"[3,5]","[1,0.25,0.05]",0.9,false,16,16,16,resnet,true,3,0,0.01,true,0.350740045309067,0.324686765670776,0.411420911550522,0.263895124197006,0.90092545747757,0.920162618160248,0.889452338218689,0.893414497375488,92.5289473705128
magna_tag_a_tune,resnet,RAW_WAVEFORM,122683773,GeForce RTX 2080 Ti,5E-05,"[4,6]","[1,0.5,0.2]",8,1E-05,,"[3,5]","[1,0.25,0.05]",0.9,false,16,16,16,resnet,true,3,0,0.01,true,0.354201853275299,0.328717768192291,0.415624350309372,0.265526562929153,0.90166825056076,0.922428488731384,0.889570474624634,0.893782615661621,106.567683357292
magna_tag_a_tune,resnet,RAW_WAVEFORM,935834894,GeForce RTX 2060 SUPER,5E-05,"[4,6]","[1,0.5,0.2]",8,1E-05,,"[3,5]","[1,0.25,0.05]",0.9,false,16,8,8,resnet,true,3,0,0.01,true,0.342021107673645,0.307673662900925,0.405037611722946,0.260443329811096,0.897855222225189,0.912629127502441,0.888301134109497,0.894733428955078,118.176209736905
magna_tag_a_tune,resnet,RAW_WAVEFORM,248123,GeForce RTX 2060 SUPER,5E-05,"[4,6]","[1,0.5,0.2]",8,1E-05,,"[3,5]","[1,0.25,0.05]",0.9,false,16,16,16,resnet,true,3,0,0.01,true,0.354788064956665,0.331283688545227,0.415352910757065,0.262884914875031,0.902777433395386,0.92290461063385,0.890931665897369,0.895318269729614,59.3654493035714
magna_tag_a_tune,resnet,RAW_WAVEFORM,33444530,GeForce RTX 2080 Ti,5E-05,"[4,6]","[1,0.5,0.2]",8,1E-05,,"[3,5]","[1,0.25,0.05]",0.9,false,16,16,16,resnet,true,3,0,0.01,true,0.352935552597046,0.327961921691895,0.414599120616913,0.261988639831543,0.901922762393951,0.921080052852631,0.890189349651337,0.895838856697083,87.5724205513889
magna_tag_a_tune,resnet,RAW_WAVEFORM,3494912,GeForce RTX 2080 Ti,5E-05,"[4,6]","[1,0.5,0.2]",8,1E-05,,"[3,5]","[1,0.25,0.05]",0.9,false,16,16,16,resnet,true,3,0,0.01,true,0.353062808513641,0.329980611801147,0.414847016334534,0.255354255437851,0.900691688060761,0.918881833553314,0.889659345149994,0.893509447574616,94.5930947688889
magna_tag_a_tune,resnet,MFCC,3494912,GeForce RTX 2080 Ti,0.000254,"[5,7]","[1,0.5,0.1]",8,5E-05,,"[3,6]","[1,0.25,0.05]",0.9,false,16,64,64,resnet,false,3,0,0,true,0.31647664308548,0.287067919969559,0.376030534505844,0.229401051998138,0.882968306541443,0.896423876285553,0.871426522731781,0.882770657539368,1.18087242222222
magna_tag_a_tune,resnet,MFCC,935834894,GeForce RTX 2080 Ti,0.000254,"[5,7]","[1,0.5,0.1]",8,5E-05,,"[3,6]","[1,0.25,0.05]",0.9,false,16,64,64,resnet,false,3,0,0,true,0.318167120218277,0.290058761835098,0.373772919178009,0.238469064235687,0.883622825145721,0.898303031921387,0.870639741420746,0.88449490070343,1.23142924305556
magna_tag_a_tune,resnet,MFCC,1234040,GeForce RTX 2080 Ti,0.000254,"[5,7]","[1,0.5,0.1]",8,5E-05,,"[3,6]","[1,0.25,0.05]",0.9,false,16,64,64,resnet,false,3,0,0,true,0.319305598735809,0.286304295063019,0.380471140146255,0.238305434584618,0.88647848367691,0.900294840335846,0.876651227474213,0.882716357707977,1.2199176047619
magna_tag_a_tune,resnet,MFCC,33444530,GeForce RTX 2080 Ti,0.000254,"[5,7]","[1,0.5,0.1]",8,5E-05,,"[3,6]","[1,0.25,0.05]",0.9,false,16,64,64,resnet,false,3,0,0,true,0.315647423267364,0.284557580947876,0.377294331789017,0.227930545806885,0.882853150367737,0.893550932407379,0.8743856549263,0.881086885929108,1.25800711666667
magna_tag_a_tune,resnet,MFCC,300055988,GeForce RTX 2080 Ti,0.000254,"[5,7]","[1,0.5,0.1]",8,5E-05,,"[3,6]","[1,0.25,0.05]",0.9,false,16,64,64,resnet,false,3,0,0,true,0.312138199806213,0.282667726278305,0.374385178089142,0.225938081741333,0.886209487915039,0.903466939926147,0.874112725257874,0.88265585899353,1.27645436458333
magna_tag_a_tune,resnet,MFCC,122683773,GeForce RTX 2080 Ti,0.000254,"[5,7]","[1,0.5,0.1]",8,5E-05,,"[3,6]","[1,0.25,0.05]",0.9,false,16,64,64,resnet,false,3,0,0,true,0.319202780723572,0.289395719766617,0.379175007343292,0.235103979706764,0.885269343852997,0.898801922798157,0.875386416912079,0.883605420589447,1.27103860625
magna_tag_a_tune,resnet,MFCC,248123,GeForce RTX 2080 Ti,0.000254,"[5,7]","[1,0.5,0.1]",8,5E-05,,"[3,6]","[1,0.25,0.05]",0.9,false,16,64,64,resnet,false,3,0,0,true,0.336203753948212,0.309788823127747,0.400102317333221,0.236027345061302,0.892092287540436,0.906476438045502,0.882913053035736,0.886416077613831,0.851045225641026
magna_tag_a_tune,resnet,MEL_SPECTROGRAM,1234040,GeForce RTX 2060 SUPER,0.0001,"[4,6]","[1,0.5,0.1]",8,2E-05,,"[3,5]","[1,0.25,0.05]",0.9,false,16,16,32,resnet,false,3,0,0.01,true,0.309870153665543,0.283926755189896,0.359529763460159,0.243624612689018,0.881264567375183,0.898129045963287,0.868730008602142,0.880111694335938,3.63017668958333
magna_tag_a_tune,resnet,MEL_SPECTROGRAM,122683773,GeForce RTX 2080 Ti,0.0001,"[4,6]","[1,0.5,0.1]",8,2E-05,,"[3,5]","[1,0.25,0.05]",0.9,false,16,16,32,resnet,false,3,0,0.01,true,0.307663381099701,0.281281352043152,0.35854434967041,0.238283574581146,0.878746330738068,0.899912178516388,0.861426174640656,0.879905641078949,4.63001990972222
magna_tag_a_tune,resnet,MEL_SPECTROGRAM,935834894,GeForce RTX 2060 SUPER,0.0001,"[4,6]","[1,0.5,0.1]",8,2E-05,,"[3,5]","[1,0.25,0.05]",0.9,false,16,16,32,resnet,false,3,0,0.01,true,0.303865045309067,0.279930531978607,0.353774100542068,0.231437474489212,0.875847935676575,0.889763057231903,0.864575803279877,0.875970125198364,3.59490272166667
magna_tag_a_tune,resnet,MEL_SPECTROGRAM,33444530,GeForce RTX 2060 SUPER,7E-05,"[4,6]","[1,0.5,0.1]",8,2E-05,,"[3,5]","[1,0.25,0.05]",0.9,false,16,16,32,resnet,false,5,0,0.01,true,0.307686924934387,0.281758338212967,0.362016469240189,0.230180397629738,0.880051553249359,0.897131502628326,0.865208089351654,0.883190393447876,3.62144113229167
magna_tag_a_tune,resnet,MEL_SPECTROGRAM,248123,GeForce RTX 2080 Ti,7E-05,"[4,6]","[1,0.5,0.1]",8,2E-05,,"[3,5]","[1,0.25,0.05]",0.9,false,16,16,32,resnet,false,3,0,0.01,false,0.296238660812378,0.279285997152328,0.340970903635025,0.225297152996063,0.870679795742035,0.893228530883789,0.854366660118103,0.866440892219543,2.1582346047619
magna_tag_a_tune,resnet,MEL_SPECTROGRAM,300055988,GeForce RTX 2060 SUPER,0.0001,"[4,6]","[1,0.5,0.1]",8,2E-05,,"[3,5]","[1,0.25,0.05]",0.9,false,16,16,32,resnet,false,3,0,0.01,true,0.308815479278564,0.284924119710922,0.358776211738586,0.236225500702858,0.882242739200592,0.899593889713287,0.86933571100235,0.880708038806915,3.57510425625
magna_tag_a_tune,resnet,MEL_SPECTROGRAM,3494912,GeForce RTX 2060 SUPER,0.0001,"[4,6]","[1,0.5,0.1]",8,2E-05,,"[3,5]","[1,0.25,0.05]",0.9,false,16,16,32,resnet,false,3,0,0.01,true,0.304672211408615,0.283241510391235,0.354311019182205,0.229760244488716,0.87875247001648,0.896886348724365,0.865162670612335,0.87810742855072,3.58812906
magna_tag_a_tune,resnet,CQT_TRANSFORMATION,300055988,GeForce RTX 2080 Ti,5.8E-05,"[4,6]","[1,0.5,0.1]",8,2E-05,,"[3,5]","[1,0.25,0.05]",0.9,false,16,16,32,resnet,false,3,0,0.01,true,0.283640384674072,0.267867505550385,0.319726020097733,0.225096806883812,0.86588042974472,0.880824983119965,0.850461065769196,0.871121287345886,4.65847732575758
magna_tag_a_tune,resnet,CQT_TRANSFORMATION,3494912,GeForce RTX 2080 Ti,5.8E-05,"[4,6]","[1,0.5,0.1]",8,2E-05,,"[3,5]","[1,0.25,0.05]",0.9,false,16,16,32,resnet,false,3,0,0.01,true,0.290736615657806,0.273035526275635,0.328198313713074,0.235898420214653,0.868659496307373,0.889265298843384,0.850220620632172,0.8712317943573,4.8901409
magna_tag_a_tune,resnet,CQT_TRANSFORMATION,1234040,GeForce RTX 2080 Ti,5.8E-05,"[4,6]","[1,0.5,0.1]",8,2E-05,,"[3,5]","[1,0.25,0.05]",0.9,false,16,16,32,resnet,false,3,0,0.01,true,0.289575964212418,0.272278249263763,0.329742610454559,0.229812413454056,0.870512783527374,0.888150930404663,0.853999137878418,0.87443333864212,4.6316271625
magna_tag_a_tune,resnet,CQT_TRANSFORMATION,935834894,GeForce RTX 2080 Ti,5.8E-05,"[4,6]","[1,0.5,0.1]",8,2E-05,,"[3,5]","[1,0.25,0.05]",0.9,false,16,16,32,resnet,false,3,0,0.01,true,0.287917643785477,0.271134614944458,0.325869828462601,0.22762006521225,0.871100008487701,0.894326150417328,0.851046621799469,0.873042821884155,4.67309542291667
magna_tag_a_tune,resnet,CQT_TRANSFORMATION,248123,GeForce RTX 2060 SUPER,5.8E-05,"[4,6]","[1,0.5,0.1]",8,2E-05,,"[3,5]","[1,0.25,0.05]",0.9,false,16,16,32,resnet,false,7,0,0.01,true,0.286862730979919,0.270460218191147,0.325309008359909,0.226413995027542,0.870597839355469,0.893117547035217,0.850374460220337,0.87449049949646,4.437297475
magna_tag_a_tune,resnet,CQT_TRANSFORMATION,33444530,GeForce RTX 2080 Ti,5.8E-05,"[4,6]","[1,0.5,0.1]",8,2E-05,,"[3,5]","[1,0.25,0.05]",0.9,false,16,16,32,resnet,false,3,0,0.01,true,0.287885934114456,0.274632751941681,0.324185848236084,0.226283863186836,0.867337942123413,0.889661133289337,0.847619473934174,0.869511306285858,4.87577055444444
magna_tag_a_tune,resnet,CQT_TRANSFORMATION,122683773,GeForce RTX 2080 Ti,5.8E-05,"[4,6]","[1,0.5,0.1]",8,2E-05,,"[3,5]","[1,0.25,0.05]",0.9,false,16,16,32,resnet,false,3,0,0.01,true,0.280232459306717,0.264563173055649,0.3146653175354,0.225970804691315,0.867677748203278,0.890476942062378,0.84632682800293,0.873193800449371,4.967211153125
magna_tag_a_tune,musicnn,STFT,3494912,GeForce RTX 2080 Ti,0.002,"[3,5]","[1,0.5,0.1]",6,0.0004,,"[2,4]","[1,0.25,0.05]",0.9,false,12,32,64,musicnn,true,3,0,0.01,true,0.369730234146118,0.350837081670761,0.43460413813591,0.26183819770813,0.910695791244507,0.929087042808533,0.900901794433594,0.902142643928528,193.770780981481
magna_tag_a_tune,musicnn,STFT,935834894,GeForce RTX 2080 Ti,0.002,"[3,5]","[1,0.5,0.1]",6,0.0004,,"[2,4]","[1,0.25,0.05]",0.9,false,12,32,64,musicnn,true,3,0,0.01,true,0.375016570091247,0.354435622692108,0.439418822526932,0.272168785333633,0.911654949188232,0.93099582195282,0.901661276817322,0.901261210441589,311.512759398611
magna_tag_a_tune,musicnn,STFT,122683773,GeForce RTX 2060 SUPER,0.002,"[3,5]","[1,0.5,0.1]",6,0.0004,,"[2,4]","[1,0.25,0.05]",0.9,false,12,16,32,musicnn,true,3,0,0.01,true,0.364608615636826,0.343319654464722,0.428551882505417,0.26208370923996,0.910874962806702,0.93110603094101,0.900785088539124,0.900077164173126,241.248301945833
magna_tag_a_tune,musicnn,STFT,300055988,GeForce RTX 2080 Ti,0.002,"[3,5]","[1,0.5,0.1]",6,0.0004,,"[2,4]","[1,0.25,0.05]",0.9,false,12,32,64,musicnn,true,3,0,0.01,true,0.373769074678421,0.354176789522171,0.437627106904983,0.270761102437973,0.912679314613342,0.934248805046082,0.902285158634186,0.900295674800873,189.745435740278
magna_tag_a_tune,musicnn,STFT,248123,GeForce RTX 2080 Ti,0.002,"[3,5]","[1,0.5,0.1]",6,0.0004,,"[2,4]","[1,0.25,0.05]",0.9,false,0,32,64,musicnn,true,3,0,0.01,true,0.372735142707825,0.359269589185715,0.434281229972839,0.261067271232605,0.912648618221283,0.933394312858582,0.902067363262176,0.901913642883301,
magna_tag_a_tune,musicnn,STFT,33444530,GeForce RTX 2080 Ti,0.002,"[3,5]","[1,0.5,0.1]",6,0.0004,,"[2,4]","[1,0.25,0.05]",0.9,false,12,32,64,musicnn,true,3,0,0.01,true,0.374977499246597,0.356662452220917,0.438598245382309,0.265300691127777,0.913164854049683,0.935381650924683,0.902684271335602,0.899560928344727,192.223331040909
magna_tag_a_tune,musicnn,STFT,1234040,GeForce RTX 2080 Ti,0.002,"[3,5]","[1,0.5,0.1]",6,0.0004,,"[2,4]","[1,0.25,0.05]",0.9,false,12,32,64,musicnn,true,3,0,0.01,true,0.341141879558563,0.323338389396667,0.393554240465164,0.256175100803375,0.897674262523651,0.915895164012909,0.886414706707001,0.891975820064545,191.823495138889
magna_tag_a_tune,musicnn,RAW_WAVEFORM,300055988,GeForce RTX 2080 Ti,0.0005,"[4,6]","[1,0.5,0.1]",8,0.0001,,"[3,5]","[1,0.25,0.05]",0.9,false,16,32,64,musicnn,true,3,0.25,0.01,true,0.337017357349396,0.313234001398087,0.396989732980728,0.247961103916168,0.897317945957184,0.91449648141861,0.888804614543915,0.887542724609375,111.796629027381
magna_tag_a_tune,musicnn,RAW_WAVEFORM,935834894,GeForce RTX 2080 Ti,0.0005,"[4,6]","[1,0.5,0.1]",8,0.0001,,"[3,5]","[1,0.25,0.05]",0.9,false,16,32,64,musicnn,true,3,0.25,0.01,true,0.331582069396973,0.305965274572372,0.391502976417542,0.243065759539604,0.895952522754669,0.914753079414368,0.88596898317337,0.886147856712341,115.922194875
magna_tag_a_tune,musicnn,RAW_WAVEFORM,33444530,GeForce RTX 2080 Ti,0.0005,"[4,6]","[1,0.5,0.1]",8,0.0001,,"[3,5]","[1,0.25,0.05]",0.9,false,16,32,64,musicnn,true,3,0.25,0.01,true,0.327549427747726,0.307781398296356,0.381688505411148,0.244046315550804,0.892687201499939,0.912359654903412,0.880343437194824,0.887006938457489,114.864606432292
magna_tag_a_tune,musicnn,RAW_WAVEFORM,1234040,GeForce RTX 2080 Ti,0.0005,"[4,6]","[1,0.5,0.1]",8,0.0001,,"[3,5]","[1,0.25,0.05]",0.9,false,16,32,64,musicnn,true,3,0.25,0.01,true,0.327881455421448,0.306787431240082,0.384582638740539,0.239014118909836,0.892505705356598,0.910470426082611,0.882284343242645,0.884529411792755,112.735123166667
magna_tag_a_tune,musicnn,RAW_WAVEFORM,248123,GeForce RTX 2080 Ti,0.0005,"[4,6]","[1,0.5,0.1]",8,0.0001,,"[3,5]","[1,0.25,0.05]",0.9,false,16,32,64,musicnn,true,3,0.25,0.01,true,0.338434875011444,0.316262155771255,0.397986859083176,0.248246267437935,0.898227214813232,0.916410326957702,0.88905656337738,0.888072192668915,83.3667550416667
magna_tag_a_tune,musicnn,RAW_WAVEFORM,122683773,GeForce RTX 2080 Ti,0.0005,"[4,6]","[1,0.5,0.1]",8,0.0001,,"[3,5]","[1,0.25,0.05]",0.9,false,16,32,64,musicnn,true,3,0.25,0.01,true,0.331388562917709,0.309473693370819,0.388616561889648,0.243236601352692,0.893925905227661,0.910386860370636,0.884842932224274,0.886031746864319,113.096199118056
magna_tag_a_tune,musicnn,RAW_WAVEFORM,3494912,GeForce RTX 2080 Ti,0.0005,"[4,6]","[1,0.5,0.1]",8,0.0001,,"[3,5]","[1,0.25,0.05]",0.9,false,16,32,64,musicnn,true,3,0.25,0.01,true,0.335102677345276,0.313675761222839,0.391970813274384,0.248342037200928,0.89440244436264,0.911796867847443,0.884179055690765,0.887682676315308,114.624603463333
magna_tag_a_tune,musicnn,MFCC,33444530,GeForce RTX 2080 Ti,0.001,"[5,7]","[1,0.5,0.1]",8,0.0002,,"[3,6]","[1,0.25,0.05]",0.9,false,16,32,256,musicnn,true,3,0.25,0.01,true,0.36054465174675,0.340149521827698,0.425941079854965,0.253895312547684,0.905839085578918,0.925314962863922,0.895765542984009,0.894769668579102,25.2200724916667
magna_tag_a_tune,musicnn,MFCC,300055988,GeForce RTX 2080 Ti,0.001,"[5,7]","[1,0.5,0.1]",8,0.0002,,"[3,6]","[1,0.25,0.05]",0.9,false,16,32,256,musicnn,true,3,0.25,0.01,true,0.35845747590065,0.34001299738884,0.423828989267349,0.247416630387306,0.905900120735168,0.92438817024231,0.896696627140045,0.894986867904663,24.8464149916667
magna_tag_a_tune,musicnn,MFCC,122683773,GeForce RTX 2080 Ti,0.001,"[5,7]","[1,0.5,0.1]",8,0.0002,,"[3,6]","[1,0.25,0.05]",0.9,false,16,32,256,musicnn,true,3,0.25,0.01,true,0.35867777466774,0.338984608650208,0.424509137868881,0.24863488972187,0.90563577413559,0.92574155330658,0.89520400762558,0.89410525560379,25.1723264989583
magna_tag_a_tune,musicnn,MFCC,3494912,GeForce RTX 2080 Ti,0.001,"[5,7]","[1,0.5,0.1]",8,0.0002,,"[3,6]","[1,0.25,0.05]",0.9,false,16,32,256,musicnn,true,3,0.25,0.01,true,0.356673359870911,0.338392943143845,0.420913189649582,0.248300343751907,0.905785620212555,0.925788521766663,0.895659267902374,0.894246816635132,24.9667254069444
magna_tag_a_tune,musicnn,MFCC,935834894,GeForce RTX 2080 Ti,0.001,"[5,7]","[1,0.5,0.1]",8,0.0002,,"[3,6]","[1,0.25,0.05]",0.9,false,16,32,256,musicnn,true,3,0.25,0.01,true,0.357518702745438,0.333683431148529,0.425515055656433,0.249803140759468,0.905655682086945,0.924581468105316,0.896397590637207,0.893689393997192,26.0318063321429
magna_tag_a_tune,musicnn,MFCC,248123,GeForce RTX 2060 SUPER,0.001,"[5,7]","[1,0.5,0.1]",8,0.0002,,"[3,6]","[1,0.25,0.05]",0.9,false,16,32,256,musicnn,true,3,0.25,0.01,true,0.361023545265198,0.340336054563522,0.428346186876297,0.249584034085274,0.906600058078766,0.927450716495514,0.896252870559692,0.893526613712311,40.5129119055556
magna_tag_a_tune,musicnn,MFCC,1234040,GeForce RTX 2080 Ti,0.001,"[5,7]","[1,0.5,0.1]",8,0.0002,,"[3,6]","[1,0.25,0.05]",0.9,false,16,32,256,musicnn,true,3,0.25,0.01,true,0.358902215957642,0.341164231300354,0.422335058450699,0.251639038324356,0.90602844953537,0.926432192325592,0.895362496376038,0.894958913326263,24.9958065711111
magna_tag_a_tune,musicnn,MEL_SPECTROGRAM,3494912,GeForce RTX 2080 Ti,0.0005,[8],"[1,0.5]",16,0.0005,,"[2,4]","[1,0.25,0.05]",0.9,false,14,16,128,musicnn,true,4,0,0.01,true,0.371963948011398,0.353097856044769,0.441053748130798,0.253998965024948,0.911334455013275,0.934057652950287,0.90410977602005,0.888357818126678,104.778743829762
magna_tag_a_tune,musicnn,MEL_SPECTROGRAM,122683773,GeForce RTX 2080 Ti,0.0005,[8],"[1,0.5]",16,0.0005,,"[2,4]","[1,0.25,0.05]",0.9,false,14,16,128,musicnn,true,4,0,0.01,true,0.371830582618713,0.353748947381973,0.440219700336456,0.252484917640686,0.910256803035736,0.932260870933533,0.902953207492828,0.887629091739654,108.86677662381
magna_tag_a_tune,musicnn,MEL_SPECTROGRAM,1234040,GeForce RTX 2080 Ti,0.0005,[8],"[1,0.5]",16,0.0005,,"[2,4]","[1,0.25,0.05]",0.9,false,14,16,128,musicnn,true,4,0,0.01,true,0.375046819448471,0.358671247959137,0.442874044179916,0.256465941667557,0.912871479988098,0.936184644699097,0.904628396034241,0.891031801700592,106.192406663095
magna_tag_a_tune,musicnn,MEL_SPECTROGRAM,33444530,GeForce RTX 2080 Ti,0.0005,[8],"[1,0.5]",16,0.0005,,"[2,4]","[1,0.25,0.05]",0.9,false,14,16,128,musicnn,true,4,0,0.01,true,0.370889365673065,0.352212190628052,0.442392528057098,0.245140969753265,0.910077035427094,0.930944085121155,0.903588533401489,0.88752555847168,108.762771785714
magna_tag_a_tune,musicnn,MEL_SPECTROGRAM,935834894,GeForce RTX 2080 Ti,0.0005,[8],"[1,0.5]",16,0.0005,,"[2,4]","[1,0.25,0.05]",0.9,false,14,16,128,musicnn,true,4,0,0.01,true,0.375563889741898,0.358954221010208,0.444215685129166,0.253400444984436,0.910648822784424,0.935266733169556,0.902039110660553,0.885742485523224,106.082639609524
magna_tag_a_tune,musicnn,MEL_SPECTROGRAM,248123,GeForce RTX 2080 Ti,0.0005,[8],"[1,0.5]",16,0.0005,,"[2,4]","[1,0.25,0.05]",0.9,false,14,16,128,musicnn,true,4,0,0.01,true,0.371286809444427,0.352308958768845,0.443992704153061,0.244721412658691,0.910556316375732,0.930485427379608,0.904401957988739,0.889033198356628,103.655526640476
magna_tag_a_tune,musicnn,MEL_SPECTROGRAM,300055988,GeForce RTX 2060 SUPER,0.0005,[8],"[1,0.5]",16,0.0005,,"[2,4]","[1,0.25,0.05]",0.9,false,14,8,64,musicnn,true,4,0,0.01,true,0.370890736579895,0.351958304643631,0.441806524991989,0.247839957475662,0.910613119602203,0.932081639766693,0.903963983058929,0.88823401927948,42.1004088857143
magna_tag_a_tune,musicnn,CQT_TRANSFORMATION,935834894,GeForce RTX 2080 Ti,0.0005,[8],"[1,0.5]",12,0.0001,,"[3,6]","[1,0.25,0.05]",0.9,false,14,16,128,musicnn,true,3,0,0,true,0.369879543781281,0.357015281915665,0.439013987779617,0.240311458706856,0.90862113237381,0.933291554450989,0.899598360061646,0.885062754154205,105.590317819048
magna_tag_a_tune,musicnn,CQT_TRANSFORMATION,122683773,GeForce RTX 2080 Ti,0.0005,[8],"[1,0.5]",12,0.0001,,"[3,6]","[1,0.25,0.05]",0.9,false,14,16,128,musicnn,true,3,0,0,true,0.373185604810715,0.360039681196213,0.442104518413544,0.245115786790848,0.910893082618713,0.937586903572082,0.900832533836365,0.886811554431915,105.419316378571
magna_tag_a_tune,musicnn,CQT_TRANSFORMATION,3494912,GeForce RTX 2080 Ti,0.0005,[8],"[1,0.5]",12,0.0001,,"[3,6]","[1,0.25,0.05]",0.9,false,14,16,128,musicnn,true,3,0,0,true,0.369790226221085,0.354789078235626,0.441091656684876,0.239774465560913,0.909523189067841,0.932761669158936,0.90192586183548,0.885671854019165,106.256345942857
magna_tag_a_tune,musicnn,CQT_TRANSFORMATION,300055988,GeForce RTX 2080 Ti,0.0005,[8],"[1,0.5]",12,0.0001,,"[3,6]","[1,0.25,0.05]",0.9,false,14,16,128,musicnn,true,3,0,0,true,0.373672097921371,0.356561541557312,0.442758649587631,0.252991497516632,0.910853981971741,0.93476665019989,0.903434336185455,0.885777294635773,105.898944494048
magna_tag_a_tune,musicnn,CQT_TRANSFORMATION,33444530,GeForce RTX 2080 Ti,0.0005,[8],"[1,0.5]",12,0.0001,,"[3,6]","[1,0.25,0.05]",0.9,false,14,16,128,musicnn,true,3,0,0,true,0.372195929288864,0.360296189785004,0.44209498167038,0.240121334791183,0.909587323665619,0.935302674770355,0.900375127792358,0.885444462299347,105.606294267857
magna_tag_a_tune,musicnn,CQT_TRANSFORMATION,1234040,GeForce RTX 2060 SUPER,0.0005,[8],"[1,0.5]",12,0.0001,,"[3,6]","[1,0.25,0.05]",0.9,false,14,8,64,musicnn,true,3,0,0,true,0.367904096841812,0.350328326225281,0.437405556440353,0.246629446744919,0.909048080444336,0.932014286518097,0.901510834693909,0.886108160018921,42.0486146678571
magna_tag_a_tune,musicnn,CQT_TRANSFORMATION,248123,GeForce RTX 2060 SUPER,0.0005,[8],"[1,0.5]",12,0.0001,,"[3,6]","[1,0.25,0.05]",0.9,false,14,16,128,musicnn,true,3,0,0,true,0.373302161693573,0.355303823947906,0.443459153175354,0.252211332321167,0.909197688102722,0.934638202190399,0.900224268436432,0.884799242019653,182.084299607143
magna_tag_a_tune,dil_cnn,STFT,1234040,GeForce RTX 2060 SUPER,0.002,"[3,5]","[1,0.5,0.1]",6,0.0004,,"[2,4]","[1,0.25,0.05]",0.9,false,12,16,32,dil_cnn,true,3,0,0.01,true,0.374147236347198,0.353450208902359,0.441438764333725,0.264472633600235,0.914438843727112,0.936424136161804,0.904339015483856,0.901561200618744,55.6283582805556
magna_tag_a_tune,dil_cnn,STFT,33444530,GeForce RTX 2080 Ti,0.002,"[3,5]","[1,0.5,0.1]",6,0.0004,,"[2,4]","[1,0.25,0.05]",0.9,false,12,32,64,dil_cnn,true,3,0,0.01,true,0.375723987817764,0.354691326618195,0.444181561470032,0.265091955661774,0.914729297161102,0.938518047332764,0.903723120689392,0.899547457695007,65.4529074347222
magna_tag_a_tune,dil_cnn,STFT,300055988,GeForce RTX 2080 Ti,0.002,"[3,5]","[1,0.5,0.1]",6,0.0004,,"[2,4]","[1,0.25,0.05]",0.9,false,12,32,64,dil_cnn,true,3,0,0.01,true,0.381633937358856,0.362887144088745,0.449644356966019,0.267542541027069,0.914830327033997,0.936816215515137,0.906283318996429,0.897186815738678,64.8609362430556
magna_tag_a_tune,dil_cnn,STFT,3494912,GeForce RTX 2080 Ti,0.002,"[3,5]","[1,0.5,0.1]",6,0.0004,,"[2,4]","[1,0.25,0.05]",0.9,false,12,32,64,dil_cnn,true,3,0,0.01,true,0.381552517414093,0.366060554981232,0.445212453603745,0.272060722112656,0.915435433387756,0.938377916812897,0.905443549156189,0.900050818920136,64.935873369697
magna_tag_a_tune,dil_cnn,STFT,122683773,GeForce RTX 2080 Ti,0.002,"[3,5]","[1,0.5,0.1]",6,0.0004,,"[2,4]","[1,0.25,0.05]",0.9,false,12,32,64,dil_cnn,true,3,0,0.01,true,0.377901911735535,0.360722243785858,0.442569047212601,0.268679201602936,0.914499461650848,0.93734735250473,0.90493780374527,0.897918462753296,65.1828978097222
magna_tag_a_tune,dil_cnn,STFT,248123,GeForce RTX 2060 SUPER,0.002,"[3,5]","[1,0.5,0.1]",6,0.0004,,"[2,4]","[1,0.25,0.05]",0.9,false,12,32,64,dil_cnn,true,3,0,0.01,true,0.374135375022888,0.352696180343628,0.44043779373169,0.266545742750168,0.915430009365082,0.937993168830872,0.90475869178772,0.901902616024017,86.7567171097222
magna_tag_a_tune,dil_cnn,STFT,935834894,GeForce RTX 2080 Ti,0.002,"[3,5]","[1,0.5,0.1]",6,0.0004,,"[2,4]","[1,0.25,0.05]",0.9,false,12,32,64,dil_cnn,true,3,0,0.01,true,0.379808038473129,0.363859087228775,0.447939187288284,0.262262165546417,0.915253281593323,0.938205003738403,0.904781699180603,0.900208711624146,65.7765204277778
magna_tag_a_tune,dil_cnn,RAW_WAVEFORM,122683773,GeForce RTX 2080 Ti,0.0005,"[4,6]","[1,0.5,0.1]",8,1E-05,,"[3,5]","[1,0.25,0.05]",0.9,false,15,16,4,dil_cnn,true,3,0.25,0.01,true,0.318679064512253,0.295486569404602,0.366657555103302,0.252633631229401,0.887952327728272,0.90572601556778,0.874307870864868,0.887816667556763,128.690638781944
magna_tag_a_tune,dil_cnn,RAW_WAVEFORM,3494912,GeForce RTX 2080 Ti,0.0005,"[4,6]","[1,0.5,0.1]",8,1E-05,,"[3,5]","[1,0.25,0.05]",0.9,false,15,16,4,dil_cnn,true,3,0.25,0.01,true,0.316983759403229,0.303819239139557,0.357255190610886,0.250162601470947,0.8862344622612,0.905406773090362,0.871719121932983,0.885561108589172,122.020022630556
magna_tag_a_tune,dil_cnn,RAW_WAVEFORM,248123,GeForce RTX 2060 SUPER,0.0005,"[4,6]","[1,0.5,0.1]",8,1E-05,,"[3,5]","[1,0.25,0.05]",0.9,false,15,16,4,dil_cnn,true,3,0.25,0.01,true,0.316709905862808,0.30138435959816,0.358088374137878,0.250102192163467,0.887229561805725,0.907821536064148,0.870071232318878,0.889312505722046,85.8538592291667
magna_tag_a_tune,dil_cnn,RAW_WAVEFORM,300055988,GeForce RTX 2080 Ti,0.0005,"[4,6]","[1,0.5,0.1]",8,1E-05,,"[3,5]","[1,0.25,0.05]",0.9,false,15,16,4,dil_cnn,true,3,0.25,0.01,true,0.323072612285614,0.304208040237427,0.368906021118164,0.256109833717346,0.890562117099762,0.909872591495514,0.876779198646545,0.888251483440399,116.998603002222
magna_tag_a_tune,dil_cnn,RAW_WAVEFORM,935834894,GeForce RTX 2080 Ti,0.0005,"[4,6]","[1,0.5,0.1]",8,1E-05,,"[3,5]","[1,0.25,0.05]",0.9,false,15,16,4,dil_cnn,true,3,0.25,0.01,true,0.319370269775391,0.29911732673645,0.365868121385574,0.25050687789917,0.889596879482269,0.908208429813385,0.875018894672394,0.890095055103302,131.65127233
magna_tag_a_tune,dil_cnn,RAW_WAVEFORM,33444530,GeForce RTX 2080 Ti,0.00045,"[4,6]","[1,0.5,0.1]",8,1E-05,,"[3,5]","[1,0.25,0.05]",0.9,false,15,16,4,dil_cnn,true,3,0.25,0.01,true,0.317968815565109,0.300726175308228,0.362779468297958,0.247454807162285,0.887400388717651,0.904756665229797,0.873554944992065,0.887617111206055,119.770010616667
magna_tag_a_tune,dil_cnn,RAW_WAVEFORM,1234040,GeForce RTX 2080 Ti,0.0005,"[4,6]","[1,0.5,0.1]",8,1E-05,,"[3,5]","[1,0.25,0.05]",0.9,false,15,16,4,dil_cnn,true,3,0.25,0.01,true,0.322670966386795,0.30780041217804,0.367237359285355,0.249810770153999,0.887118279933929,0.903522193431854,0.873555421829224,0.888544857501983,116.448491280556
magna_tag_a_tune,dil_cnn,MFCC,3494912,GeForce RTX 2060 SUPER,0.001,"[5,7]","[1,0.5,0.1]",8,0.0002,,"[3,6]","[1,0.25,0.05]",0.9,false,14,16,128,dil_cnn,true,3,0.25,0.01,true,0.360527694225311,0.340519279241562,0.425671458244324,0.254023402929306,0.9066162109375,0.925754070281982,0.897078156471252,0.895463526248932,9.90228178333333
magna_tag_a_tune,dil_cnn,MFCC,300055988,GeForce RTX 2080 Ti,0.001,"[5,7]","[1,0.5,0.1]",8,0.0002,,"[3,6]","[1,0.25,0.05]",0.9,false,14,32,256,dil_cnn,true,3,0.25,0.01,true,0.365232855081558,0.348852604627609,0.428354173898697,0.257177293300629,0.907514810562134,0.928505957126617,0.897337973117828,0.894489824771881,16.9029665535714
magna_tag_a_tune,dil_cnn,MFCC,1234040,GeForce RTX 2060 SUPER,0.001,"[5,7]","[1,0.5,0.1]",8,0.0002,,"[3,6]","[1,0.25,0.05]",0.9,false,14,16,128,dil_cnn,true,3,0.25,0.01,true,0.360887795686722,0.341098815202713,0.427192687988281,0.250563472509384,0.906376421451569,0.927574813365936,0.895754396915436,0.893515586853027,9.93612610357143
magna_tag_a_tune,dil_cnn,MFCC,248123,GeForce RTX 2060 SUPER,0.001,"[5,7]","[1,0.5,0.1]",8,0.0002,,"[3,6]","[1,0.25,0.05]",0.9,false,0,32,256,dil_cnn,true,3,0.25,0.01,true,0.363482654094696,0.344857186079025,0.428616881370544,0.253085732460022,0.90775465965271,0.926648199558258,0.898347318172455,0.895948112010956,
magna_tag_a_tune,dil_cnn,MFCC,33444530,GeForce RTX 2060 SUPER,0.001,"[5,7]","[1,0.5,0.1]",8,0.0002,,"[3,6]","[1,0.25,0.05]",0.9,false,14,16,128,dil_cnn,true,3,0.25,0.01,true,0.361739993095398,0.342142373323441,0.426598757505417,0.254950404167175,0.907017230987549,0.926765739917755,0.897392690181732,0.894707143306732,9.84043478690476
magna_tag_a_tune,dil_cnn,MFCC,122683773,GeForce RTX 2080 Ti,0.001,"[5,7]","[1,0.5,0.1]",8,0.0002,,"[3,6]","[1,0.25,0.05]",0.9,false,14,32,256,dil_cnn,true,3,0.25,0.01,true,0.365427106618881,0.346090644598007,0.432058542966843,0.254419326782227,0.907191932201386,0.927720844745636,0.896971344947815,0.894572913646698,16.9824437833333
magna_tag_a_tune,dil_cnn,MFCC,935834894,GeForce RTX 2060 SUPER,0.001,"[5,7]","[1,0.5,0.1]",8,0.0002,,"[3,6]","[1,0.25,0.05]",0.9,false,14,16,128,dil_cnn,true,3,0.25,0.01,true,0.362996488809586,0.343549996614456,0.430170655250549,0.250888705253601,0.906893014907837,0.927152931690216,0.897148847579956,0.893697023391724,9.98016146666666
magna_tag_a_tune,dil_cnn,MEL_SPECTROGRAM,122683773,GeForce RTX 2080 Ti,0.0005,[8],"[1,0.5]",12,0.0001,,"[3,6]","[1,0.25,0.05]",0.9,false,14,16,128,dil_cnn,true,3,0,0,true,0.380450755357742,0.367298364639282,0.450062572956085,0.253304123878479,0.913283407688141,0.936422228813171,0.905433833599091,0.891279935836792,51.3752056428571
magna_tag_a_tune,dil_cnn,MEL_SPECTROGRAM,3494912,GeForce RTX 2060 SUPER,0.0005,[8],"[1,0.5]",12,0.0001,,"[3,6]","[1,0.25,0.05]",0.9,false,14,8,64,dil_cnn,true,3,0,0,true,0.377867847681046,0.36304646730423,0.44698116183281,0.255252778530121,0.912371039390564,0.935719966888428,0.90494179725647,0.888855040073395,22.7607294928571
magna_tag_a_tune,dil_cnn,MEL_SPECTROGRAM,33444530,GeForce RTX 2060 SUPER,0.0005,[8],"[1,0.5]",12,0.0001,,"[3,6]","[1,0.25,0.05]",0.9,false,14,8,64,dil_cnn,true,3,0,0,true,0.376958847045898,0.359432429075241,0.445950239896774,0.259068489074707,0.911377668380737,0.934013903141022,0.905041933059692,0.887092351913452,22.6705465440476
magna_tag_a_tune,dil_cnn,MEL_SPECTROGRAM,1234040,GeForce RTX 2060 SUPER,0.0005,[8],"[1,0.5]",12,0.0001,,"[3,6]","[1,0.25,0.05]",0.9,false,14,8,64,dil_cnn,true,3,0,0,true,0.377125144004822,0.360704958438873,0.445505917072296,0.25806587934494,0.911539435386658,0.932300508022308,0.905194222927094,0.890198051929474,22.8426287916667
magna_tag_a_tune,dil_cnn,MEL_SPECTROGRAM,300055988,GeForce RTX 2060 SUPER,0.0005,[8],"[1,0.5]",12,0.0001,,"[3,6]","[1,0.25,0.05]",0.9,false,14,8,64,dil_cnn,true,3,0,0,true,0.378084063529968,0.360885322093964,0.448735743761063,0.255155175924301,0.911212861537933,0.933768212795258,0.903367578983307,0.890671968460083,22.7578200785714
magna_tag_a_tune,dil_cnn,MEL_SPECTROGRAM,248123,GeForce RTX 2060 SUPER,0.0005,[8],"[1,0.5]",12,0.0001,,"[3,6]","[1,0.25,0.05]",0.9,false,0,16,128,dil_cnn,true,3,0,0,true,0.377229660749435,0.363062500953674,0.446433514356613,0.250902861356735,0.911635220050812,0.932036340236664,0.905681073665619,0.889192879199982,
magna_tag_a_tune,dil_cnn,MEL_SPECTROGRAM,935834894,GeForce RTX 2060 SUPER,0.0005,[8],"[1,0.5]",12,0.0001,,"[3,6]","[1,0.25,0.05]",0.9,false,14,8,64,dil_cnn,true,3,0,0,true,0.378348618745804,0.357981026172638,0.450374633073807,0.25660240650177,0.911874234676361,0.934103012084961,0.90565037727356,0.887532770633698,22.8622098238095
magna_tag_a_tune,dil_cnn,CQT_TRANSFORMATION,33444530,GeForce RTX 2080 Ti,0.0005,[8],"[1,0.5]",12,0.0001,,"[3,6]","[1,0.25,0.05]",0.9,false,14,16,128,dil_cnn,true,3,0,0,true,0.379798859357834,0.36974510550499,0.448009610176086,0.248497992753983,0.911682367324829,0.932755947113037,0.904824316501617,0.890238344669342,51.0068106547619
magna_tag_a_tune,dil_cnn,CQT_TRANSFORMATION,122683773,GeForce RTX 2080 Ti,0.0005,[8],"[1,0.5]",12,0.0001,,"[3,6]","[1,0.25,0.05]",0.9,false,14,16,128,dil_cnn,true,3,0,0,true,0.384680032730103,0.376233369112015,0.451327502727508,0.254534840583801,0.913286924362183,0.939196348190308,0.904150545597076,0.88837742805481,51.7905162678571
magna_tag_a_tune,dil_cnn,CQT_TRANSFORMATION,1234040,GeForce RTX 2080 Ti,0.0005,[8],"[1,0.5]",12,0.0001,,"[3,6]","[1,0.25,0.05]",0.9,false,14,16,128,dil_cnn,true,3,0,0,true,0.383693695068359,0.37276366353035,0.452574372291565,0.253554791212082,0.913996577262878,0.93827486038208,0.905724942684174,0.891072154045105,51.9444666369048
magna_tag_a_tune,dil_cnn,CQT_TRANSFORMATION,935834894,GeForce RTX 2080 Ti,0.0005,[8],"[1,0.5]",12,0.0001,,"[3,6]","[1,0.25,0.05]",0.9,false,14,16,128,dil_cnn,true,3,0,0,true,0.382587730884552,0.369214653968811,0.452539533376694,0.251965820789337,0.912583112716675,0.937165915966034,0.904991149902344,0.886360883712769,53.8454094095238
magna_tag_a_tune,dil_cnn,CQT_TRANSFORMATION,300055988,GeForce RTX 2080 Ti,0.0005,[8],"[1,0.5]",12,0.0001,,"[3,6]","[1,0.25,0.05]",0.9,false,14,16,128,dil_cnn,true,3,0,0,true,0.379715353250504,0.370149582624435,0.445386379957199,0.253026336431503,0.913285076618195,0.937396883964539,0.905352175235748,0.889220654964447,52.4632933345238
magna_tag_a_tune,dil_cnn,CQT_TRANSFORMATION,3494912,GeForce RTX 2060 SUPER,0.0005,[8],"[1,0.5]",12,0.0001,,"[3,6]","[1,0.25,0.05]",0.9,false,14,8,64,dil_cnn,true,3,0,0,true,0.374410927295685,0.35890731215477,0.445418179035187,0.246257066726685,0.910628378391266,0.936139941215515,0.902361512184143,0.8854860663414,22.6132531095238
magna_tag_a_tune,dil_cnn,CQT_TRANSFORMATION,248123,GeForce RTX 2060 SUPER,0.0005,[8],"[1,5]",12,0.0001,,"[3,6]","[1,0.25,0.05]",0.9,false,14,16,128,dil_cnn,true,3,0,0,true,0.370541870594025,0.356380730867386,0.439948260784149,0.242769107222557,0.908142685890198,0.92896693944931,0.901792764663696,0.885444939136505,79.6503443633333
