label,category
singer,instrument
harpsichord,instrument
sitar,instrument
heavy,mood
foreign,genre
no piano,instrument
classical,genre
female,instrument
jazz,genre
guitar,instrument
quiet,mood
solo,other
folk,genre
ambient,instrument
new age,genre
synth,instrument
drum,instrument
bass,instrument
loud,mood
string,instrument
opera,genre
fast,mood
country,genre
violin,instrument
electro,genre
trance,genre
chant,genre
strange,mood
modern,mood
hard,mood
harp,instrument
pop,genre
female vocal,instrument
piano,instrument
orchestra,instrument
eastern,genre
slow,mood
male,instrument
vocal,instrument
no singer,instrument
india,genre
rock,genre
dance,genre
cello,instrument
techno,genre
flute,instrument
beat,other
soft,mood
choir,instrument
baroque,genre
